{
  "url-backend": "127.0.0.1",
  "port": 9999,

  "data-db-connection": "mongodb+srv://deybison2026:o4Xiu0JRKJ38UhCI@cluster1.how18yi.mongodb.net/bd-registro-academico?retryWrites=true&w=majority&appName=Cluster1",
  "name-db": "bd-registro-academico"
}
